<mxfile host="app.diagrams.net" modified="2023-04-19T11:33:26.323Z" agent="Mozilla/5.0 (Macintosh; Intel Mac OS X 10_15_7) AppleWebKit/537.36 (KHTML, like Gecko) Chrome/112.0.0.0 Safari/537.36" etag="6UMyDOwgqyhebPDV62fQ" version="21.1.7" type="device">
  <diagram id="ObpLbnOcSSLftfgeoyU2" name="Page-1">
    <mxGraphModel dx="954" dy="623" grid="1" gridSize="10" guides="1" tooltips="1" connect="1" arrows="1" fold="1" page="1" pageScale="1" pageWidth="827" pageHeight="1169" math="0" shadow="0">
      <root>
        <mxCell id="0" />
        <mxCell id="1" parent="0" />
        <mxCell id="FrZijV_DlYl-lp92FZMX-15" value="&lt;span style=&quot;color: rgb(0 , 0 , 0) ; font-family: &amp;#34;helvetica&amp;#34; ; font-size: 12px ; font-style: normal ; font-weight: normal ; letter-spacing: normal ; text-align: center ; text-indent: 0px ; text-transform: none ; word-spacing: 0px ; background-color: rgb(248 , 249 , 250) ; text-decoration: none ; display: inline ; float: none&quot;&gt;VPC: 10.0.0.0/16&amp;nbsp;&lt;/span&gt;" style="text;whiteSpace=wrap;html=1;" parent="1" vertex="1">
          <mxGeometry x="120" y="60" width="130" height="30" as="geometry" />
        </mxCell>
        <mxCell id="FrZijV_DlYl-lp92FZMX-2" value="" style="rounded=1;arcSize=10;dashed=0;fillColor=none;gradientColor=none;strokeWidth=2;" parent="1" vertex="1">
          <mxGeometry x="40" y="60" width="730" height="340" as="geometry" />
        </mxCell>
        <mxCell id="FrZijV_DlYl-lp92FZMX-3" value="" style="dashed=0;html=1;shape=mxgraph.aws3.virtual_private_cloud;fillColor=#F58536;gradientColor=none;dashed=0;" parent="1" vertex="1">
          <mxGeometry x="60" y="40" width="52" height="36" as="geometry" />
        </mxCell>
        <mxCell id="FrZijV_DlYl-lp92FZMX-4" value="" style="rounded=1;arcSize=10;dashed=1;strokeColor=#F59D56;fillColor=none;gradientColor=none;dashPattern=8 4;strokeWidth=2;" parent="1" vertex="1">
          <mxGeometry x="60" y="90" width="330" height="290" as="geometry" />
        </mxCell>
        <mxCell id="FrZijV_DlYl-lp92FZMX-6" value="" style="rounded=1;arcSize=10;dashed=1;strokeColor=#F59D56;fillColor=none;gradientColor=none;dashPattern=8 4;strokeWidth=2;" parent="1" vertex="1">
          <mxGeometry x="414" y="90" width="330" height="286" as="geometry" />
        </mxCell>
        <mxCell id="FrZijV_DlYl-lp92FZMX-7" value="" style="rounded=1;arcSize=10;dashed=0;fillColor=none;gradientColor=none;strokeWidth=2;" parent="1" vertex="1">
          <mxGeometry x="80" y="131" width="280" height="200" as="geometry" />
        </mxCell>
        <mxCell id="FrZijV_DlYl-lp92FZMX-8" value="" style="dashed=0;html=1;shape=mxgraph.aws3.permissions;fillColor=#D9A741;gradientColor=none;dashed=0;" parent="1" vertex="1">
          <mxGeometry x="100" y="110" width="30" height="35" as="geometry" />
        </mxCell>
        <mxCell id="FrZijV_DlYl-lp92FZMX-9" value="" style="rounded=1;arcSize=10;dashed=0;fillColor=none;gradientColor=none;strokeWidth=2;" parent="1" vertex="1">
          <mxGeometry x="439" y="131" width="280" height="200" as="geometry" />
        </mxCell>
        <mxCell id="FrZijV_DlYl-lp92FZMX-10" value="" style="dashed=0;html=1;shape=mxgraph.aws3.permissions;fillColor=#D9A741;gradientColor=none;dashed=0;" parent="1" vertex="1">
          <mxGeometry x="459" y="110" width="30" height="35" as="geometry" />
        </mxCell>
        <mxCell id="FrZijV_DlYl-lp92FZMX-11" value="Availbility Zone 1" style="text;html=1;strokeColor=none;fillColor=none;align=center;verticalAlign=middle;whiteSpace=wrap;rounded=0;" parent="1" vertex="1">
          <mxGeometry x="100" y="353" width="240" height="16" as="geometry" />
        </mxCell>
        <mxCell id="FrZijV_DlYl-lp92FZMX-12" value="Availbility Zone 2" style="text;html=1;strokeColor=none;fillColor=none;align=center;verticalAlign=middle;whiteSpace=wrap;rounded=0;" parent="1" vertex="1">
          <mxGeometry x="459" y="353" width="240" height="16" as="geometry" />
        </mxCell>
        <mxCell id="FrZijV_DlYl-lp92FZMX-13" value="Subnet: 10.0.1.0/24&amp;nbsp;" style="text;html=1;strokeColor=none;fillColor=none;align=center;verticalAlign=middle;whiteSpace=wrap;rounded=0;" parent="1" vertex="1">
          <mxGeometry x="100" y="300" width="240" height="16" as="geometry" />
        </mxCell>
        <mxCell id="FrZijV_DlYl-lp92FZMX-14" value="Subnet: 10.0.2.0/24&amp;nbsp;" style="text;html=1;strokeColor=none;fillColor=none;align=center;verticalAlign=middle;whiteSpace=wrap;rounded=0;" parent="1" vertex="1">
          <mxGeometry x="459" y="300" width="240" height="16" as="geometry" />
        </mxCell>
        <mxCell id="TANO8VvzVxNjLlgXU3Vk-5" value="" style="rounded=1;arcSize=10;dashed=1;fillColor=#ffe6cc;dashPattern=8 3 1 3;strokeWidth=2;strokeColor=#d79b00;" parent="1" vertex="1">
          <mxGeometry x="120" y="194" width="560" height="100" as="geometry" />
        </mxCell>
        <mxCell id="TANO8VvzVxNjLlgXU3Vk-3" value="EC2 - simple webapp" style="points=[[0,0],[0.25,0],[0.5,0],[0.75,0],[1,0],[1,0.25],[1,0.5],[1,0.75],[1,1],[0.75,1],[0.5,1],[0.25,1],[0,1],[0,0.75],[0,0.5],[0,0.25]];outlineConnect=0;gradientColor=none;html=1;whiteSpace=wrap;fontSize=12;fontStyle=0;shape=mxgraph.aws4.group;grIcon=mxgraph.aws4.group_ec2_instance_contents;strokeColor=#D86613;fillColor=none;verticalAlign=top;align=left;spacingLeft=30;fontColor=#D86613;dashed=0;" parent="1" vertex="1">
          <mxGeometry x="160" y="220" width="120" height="40" as="geometry" />
        </mxCell>
        <mxCell id="TANO8VvzVxNjLlgXU3Vk-4" value="EC2 - simple webapp" style="points=[[0,0],[0.25,0],[0.5,0],[0.75,0],[1,0],[1,0.25],[1,0.5],[1,0.75],[1,1],[0.75,1],[0.5,1],[0.25,1],[0,1],[0,0.75],[0,0.5],[0,0.25]];outlineConnect=0;gradientColor=none;html=1;whiteSpace=wrap;fontSize=12;fontStyle=0;shape=mxgraph.aws4.group;grIcon=mxgraph.aws4.group_ec2_instance_contents;strokeColor=#D86613;fillColor=none;verticalAlign=top;align=left;spacingLeft=30;fontColor=#D86613;dashed=0;" parent="1" vertex="1">
          <mxGeometry x="519" y="220" width="120" height="40" as="geometry" />
        </mxCell>
        <mxCell id="TANO8VvzVxNjLlgXU3Vk-6" value="" style="outlineConnect=0;dashed=0;verticalLabelPosition=bottom;verticalAlign=top;align=center;html=1;shape=mxgraph.aws3.auto_scaling;fillColor=#F58534;gradientColor=none;" parent="1" vertex="1">
          <mxGeometry x="370" y="210.88" width="60" height="58.25" as="geometry" />
        </mxCell>
        <mxCell id="TANO8VvzVxNjLlgXU3Vk-7" value="&lt;font color=&quot;#cc6600&quot;&gt;Autoscaling Group&lt;/font&gt;" style="text;html=1;strokeColor=none;fillColor=none;align=center;verticalAlign=middle;whiteSpace=wrap;rounded=0;" parent="1" vertex="1">
          <mxGeometry x="340" y="264" width="130" height="30" as="geometry" />
        </mxCell>
        <mxCell id="TANO8VvzVxNjLlgXU3Vk-8" value="" style="outlineConnect=0;dashed=0;verticalLabelPosition=bottom;verticalAlign=top;align=center;html=1;shape=mxgraph.aws3.application_load_balancer;fillColor=#F58536;gradientColor=none;fontColor=#CC6600;" parent="1" vertex="1">
          <mxGeometry x="365.5" y="73" width="69" height="72" as="geometry" />
        </mxCell>
        <mxCell id="TANO8VvzVxNjLlgXU3Vk-9" value="" style="endArrow=classic;startArrow=classic;html=1;rounded=0;fontColor=#CC6600;entryX=0.145;entryY=0.855;entryDx=0;entryDy=0;entryPerimeter=0;exitX=0.5;exitY=0;exitDx=0;exitDy=0;" parent="1" source="TANO8VvzVxNjLlgXU3Vk-3" target="TANO8VvzVxNjLlgXU3Vk-8" edge="1">
          <mxGeometry width="50" height="50" relative="1" as="geometry">
            <mxPoint x="390" y="340" as="sourcePoint" />
            <mxPoint x="440" y="290" as="targetPoint" />
          </mxGeometry>
        </mxCell>
        <mxCell id="TANO8VvzVxNjLlgXU3Vk-10" value="" style="endArrow=classic;startArrow=classic;html=1;rounded=0;fontColor=#CC6600;entryX=0.855;entryY=0.855;entryDx=0;entryDy=0;entryPerimeter=0;exitX=0.5;exitY=0;exitDx=0;exitDy=0;" parent="1" source="TANO8VvzVxNjLlgXU3Vk-4" target="TANO8VvzVxNjLlgXU3Vk-8" edge="1">
          <mxGeometry width="50" height="50" relative="1" as="geometry">
            <mxPoint x="230" y="230" as="sourcePoint" />
            <mxPoint x="385.5050000000001" y="144.55999999999995" as="targetPoint" />
          </mxGeometry>
        </mxCell>
        <mxCell id="TANO8VvzVxNjLlgXU3Vk-11" value="Load balancer" style="text;html=1;strokeColor=none;fillColor=none;align=center;verticalAlign=middle;whiteSpace=wrap;rounded=0;fontColor=#CC6600;" parent="1" vertex="1">
          <mxGeometry x="254" y="95" width="140" height="30" as="geometry" />
        </mxCell>
      </root>
    </mxGraphModel>
  </diagram>
</mxfile>
