﻿module_name;student_name;examination_date;grade;credits
Coding in Python;Scrooge McDuck;2021-01-04;8;5
Coding in Python;Mickey Mouse;2021-01-05;7;5
Coding in Python;Donald Duck;2021-01-08;6;5
Coding in Python;Huey Duck;2021-01-12;7;5
Coding in Python;Daisy Duck;2021-01-15;7;5
Coding in Python;Gus Goose;2021-01-27;5;0
SQL;Donald Duck;2021-01-04;5;0
SQL;Goofy Goof;2021-01-07;3;0
SQL;Mickey Mouse;2021-01-12;8;5
SQL;Donald Duck;2021-01-13;6;5
SQL;Goofy Goof;2021-01-19;5;0
SQL;Scrooge McDuck;2021-01-20;9;5
SQL;Huey Duck;2021-01-21;7;5
SQL;Daisy Duck;2021-01-25;8;5
SQL;Gus Goose;2021-01-25;3;0
SQL;Goofy Goof;2021-01-28;6;5
Static web;Huey Duck;2021-01-05;7;5
Static web;Scrooge McDuck;2021-01-07;6;5
Static web;Goofy Goof;2021-01-12;6;5
Static web;Mickey Mouse;2021-01-14;8;5
Static web;Donald Duck;2021-01-20;5;0
Static web;Daisy Duck;2021-01-22;8;5
Static web;Gus Goose;2021-01-27;4;0
Static web;Donald Duck;2021-01-28;7;5